<svg width="20" height="20" viewBox="0 0 20 20" fill="none" xmlns="http://www.w3.org/2000/svg">
<path d="M18 10.0471L9.95298 17.1207L1.90595 10.0471" stroke="#ADB3C7" stroke-width="2.5" stroke-linecap="round"/>
</svg>
